<?xml version="1.0" encoding="utf-8"?>
<!-- Svg Vector Icons : http://www.onlinewebfonts.com/icon -->
<!DOCTYPE svg PUBLIC "-//W3C//DTD SVG 1.1//EN" "http://www.w3.org/Graphics/SVG/1.1/DTD/svg11.dtd">
<svg version="1.1" xmlns="http://www.w3.org/2000/svg" xmlns:xlink="http://www.w3.org/1999/xlink" x="0px" y="0px" viewBox="0 0 256 256" enable-background="new 0 0 256 256" xml:space="preserve">
<metadata> Svg Vector Icons : http://www.onlinewebfonts.com/icon </metadata>
<g><g><path fill="#000000" d="M95.8,138.7H31.5c-11.8,0-21.5,9.6-21.5,21.5v64.4c0,11.8,9.6,21.5,21.5,21.5h64.4c11.8,0,21.5-9.6,21.5-21.5v-64.4C117.3,148.3,107.7,138.7,95.8,138.7 M102.5,220.5c0,5.9-4.8,10.7-10.7,10.7H35.5c-5.9,0-10.7-4.8-10.7-10.7v-56.2c0-5.9,4.8-10.7,10.7-10.7h56.2c5.9,0,10.7,4.8,10.7,10.7L102.5,220.5L102.5,220.5z M95.8,10H31.5C19.6,10,10,19.6,10,31.5v64.4c0,11.8,9.6,21.5,21.5,21.5h64.4c11.8,0,21.5-9.6,21.5-21.5V31.5C117.3,19.6,107.7,10,95.8,10 M102.5,91.7c0,5.9-4.8,10.7-10.7,10.7H35.5c-5.9,0-10.7-4.8-10.7-10.7V35.5c0-5.9,4.8-10.7,10.7-10.7h56.2c5.9,0,10.7,4.8,10.7,10.7L102.5,91.7L102.5,91.7z M224.5,10h-64.4c-11.8,0-21.5,9.6-21.5,21.5v64.4c0,11.8,9.6,21.5,21.5,21.5h64.4c11.8,0,21.5-9.6,21.5-21.5V31.5C246,19.6,236.4,10,224.5,10 M231.2,91.7c0,5.9-4.8,10.7-10.7,10.7h-56.2c-5.9,0-10.7-4.8-10.7-10.7V35.5c0-5.9,4.8-10.7,10.7-10.7h56.2c5.9,0,10.7,4.8,10.7,10.7V91.7z M224.5,138.7h-64.4c-11.8,0-21.5,9.6-21.5,21.5v64.4c0,11.8,9.6,21.5,21.5,21.5h64.4c11.8,0,21.5-9.6,21.5-21.5v-64.4C246,148.3,236.4,138.7,224.5,138.7 M231.2,220.5c0,5.9-4.8,10.7-10.7,10.7h-56.2c-5.9,0-10.7-4.8-10.7-10.7v-56.2c0-5.9,4.8-10.7,10.7-10.7h56.2c5.9,0,10.7,4.8,10.7,10.7V220.5z"/></g></g>
</svg>